module gitlab.com/yanxintest/tensorsec-net-topo

go 1.15

require (
	github.com/alecthomas/template v0.0.0-20190718012654-fb15b899a751
	github.com/cpuguy83/go-md2man/v2 v2.0.0 // indirect
	github.com/gin-gonic/gin v1.6.3
	github.com/go-openapi/spec v0.20.3 // indirect
	github.com/go-openapi/swag v0.19.15 // indirect
	github.com/mailru/easyjson v0.7.7 // indirect
	github.com/pkg/errors v0.8.1
	github.com/russross/blackfriday/v2 v2.1.0 // indirect
	github.com/sirupsen/logrus v1.8.1
	github.com/spf13/viper v1.7.1
	github.com/swaggo/files v0.0.0-20190704085106-630677cd5c14
	github.com/swaggo/gin-swagger v1.3.0
	github.com/swaggo/swag v1.7.0
	golang.org/x/net v0.0.0-20210525063256-abc453219eb5 // indirect
	golang.org/x/sys v0.0.0-20210531225629-47163c9f4e4f // indirect
	golang.org/x/tools v0.1.2 // indirect
	gorm.io/driver/postgres v1.1.0
	gorm.io/gorm v1.21.10
)
